\BOOKMARK [0][-]{chapter.1}{ارائه‌ها}{}% 1
\BOOKMARK [1][-]{section.1.1}{اوپن‌استریت‌مپ \(OSM\) }{chapter.1}% 2
\BOOKMARK [1][-]{section.1.2}{ خلاقیت و دانش آزاد؛ ظهور طبقه‌ای جدید در جامعه}{chapter.1}% 3
\BOOKMARK [1][-]{section.1.3}{ سیاست‌های کمتر شناخته‌شدهٔ ویکی‌پدیا}{chapter.1}% 4
\BOOKMARK [1][-]{section.1.4}{ آزادی و محرمانگی در رایانش همراه}{chapter.1}% 5
\BOOKMARK [1][-]{section.1.5}{چه هنگام نرم‌افزار آزاد به دام غیرآزاد می‌افتد؟}{chapter.1}% 6
\BOOKMARK [1][-]{section.1.6}{با سوزان آشنا شوید! \(معرفی نرم افزار بلندر\)}{chapter.1}% 7
\BOOKMARK [1][-]{section.1.7}{ اقتصاد نرم‌افزار آزاد}{chapter.1}% 8
\BOOKMARK [1][-]{section.1.8}{برنامهٔ آموزشی ویکی‌پدیا}{chapter.1}% 9
\BOOKMARK [1][-]{section.1.9}{ حفاظت از حریم خصوصی با تور}{chapter.1}% 10
\BOOKMARK [1][-]{section.1.10}{\040StarCalendar}{chapter.1}% 11
\BOOKMARK [1][-]{section.1.11}{معرفی بنیاد ویکی‌مدیا و پروژه‌هایش \(به جز ویکی‌پدیا\)}{chapter.1}% 12
\BOOKMARK [1][-]{section.1.12}{Rights\040in\040CopyLeft}{chapter.1}% 13
\BOOKMARK [1][-]{section.1.13}{ چرایی تغییر دیدگاه شرکت‌های انحصاری نسبت‌به نرم‌افزار آزاد}{chapter.1}% 14
\BOOKMARK [1][-]{section.1.14}{ اهمیت وب نامتمرکز و معرفی ابزار ZeroNet }{chapter.1}% 15
\BOOKMARK [1][-]{section.1.15}{ چرا اکثر ابررایانه‌ها از گنو/لینوکس استفاده می‌کنند؟}{chapter.1}% 16
\BOOKMARK [1][-]{section.1.16}{کارمند دون‌پایه \(چرا فلسفهٔ نرم افزار آزاد باعث بهبود عملکرد کارکنان می‌شود؟\)}{chapter.1}% 17
\BOOKMARK [1][-]{section.1.17}{حرکت شتابدار به سوی دنیای Embedded System و نقش نرم‌افزارهای آزاد بر آن}{chapter.1}% 18
\BOOKMARK [1][-]{section.1.18}{ سخنرانی اختتامیه}{chapter.1}% 19
\BOOKMARK [1][-]{section.1.19}{معرفی رایانش ابری و openstack}{chapter.1}% 20
\BOOKMARK [1][-]{section.1.20}{ طراحی قالب جوملا}{chapter.1}% 21
\BOOKMARK [1][-]{section.1.21}{ برنامه‌نویسی به زبان آزاد دات‌نت در گنو/لینوکس}{chapter.1}% 22
\BOOKMARK [1][-]{section.1.22}{ پیاده‌سازی وب‌سرورهای فوق سریع}{chapter.1}% 23
\BOOKMARK [1][-]{section.1.23}{کارگاه Raspberry Pi}{chapter.1}% 24
\BOOKMARK [1][-]{section.1.24}{ ایجاد نرم‌افزارهای real-time در PHP به کمک WebSocket}{chapter.1}% 25
\BOOKMARK [1][-]{section.1.25}{ معرفی و ساخت یک فریم‌ورک شخصی به کمک لاراول}{chapter.1}% 26
\BOOKMARK [1][-]{section.1.26}{ داده‌کاوی و زبان برنامه‌نویسی R }{chapter.1}% 27
\BOOKMARK [1][-]{section.1.27}{ کارگاه Inkscape }{chapter.1}% 28
\BOOKMARK [1][-]{section.1.28}{کارگاه بلندر}{chapter.1}% 29
\BOOKMARK [1][-]{section.1.29}{ راه‌اندازی و کار با ابزار و شبکهٔ ZeroNet }{chapter.1}% 30
\BOOKMARK [1][-]{section.1.30}{ آموزش ویکی‌نویسی }{chapter.1}% 31
\BOOKMARK [1][-]{section.1.31}{ کار با اوپن‌استریت‌مپ \(OSM\) از مبتدی تا پیشرفته }{chapter.1}% 32
\BOOKMARK [1][-]{section.1.32}{ کارگاه Jekyll }{chapter.1}% 33
\BOOKMARK [1][-]{section.1.33}{ چگونگی ارسال packet در شبکه و مروری بر Wireshark }{chapter.1}% 34
\BOOKMARK [1][-]{section.1.34}{\040Real\040World\040Penetration\040Testing\040}{chapter.1}% 35
\BOOKMARK [1][-]{section.1.35}{ بررسی چالش کارکردهای بی‌درنگ در سیستم‌های نهفته }{chapter.1}% 36
\BOOKMARK [1][-]{section.1.36}{ مروری بر سخت‌افزارهای آزاد و نقش آن‌ها در سیستم‌های نهفته }{chapter.1}% 37
\BOOKMARK [1][-]{section.1.37}{ پردازش تصویر در سیستم‌های نهفتهٔ نوین با استفاده از بسترهای نرم‌افزاری آزاد }{chapter.1}% 38
\BOOKMARK [1][-]{section.1.38}{قانون در بی‌قانونی \(نگاهی بر ارز رمز پایه\)}{chapter.1}% 39
\BOOKMARK [1][-]{section.1.39}{ مقایسه و معرفی راه‌کارها و ابزارهای مبتی بر تکنولوژی وب}{chapter.1}% 40
